…
Bigger example

``` r
tf <- tempfile(fileext = ".zip")
td <- tempdir()
download.file("https://www.pgnmentor.com/players/Adams.zip",  tf)
fil <- unzip(tf, exdir = td)

adams <- read_pgn(fil)

adams
```

    ## # A tibble: 2,968 x 11
    ##             Event      Site       Date Round              White              Black  Result WhiteElo BlackElo   ECO
    ##             <chr>     <chr>      <chr> <chr>              <chr>              <chr>   <chr>    <chr>    <chr> <chr>
    ##  1 Lloyds Bank op    London 1984.??.??     1     Adams, Michael    Sedgwick, David     1-0                     C05
    ##  2 Lloyds Bank op    London 1984.??.??     3     Adams, Michael  Dickenson, Neil F     1-0              2230   C07
    ##  3 Lloyds Bank op    London 1984.??.??     4       Hebden, Mark     Adams, Michael     1-0     2480            B10
    ##  4 Lloyds Bank op    London 1984.??.??     5    Pasman, Michael     Adams, Michael     0-1     2310            D42
    ##  5 Lloyds Bank op    London 1984.??.??     6     Adams, Michael   Levitt, Jonathan 1/2-1/2              2370   B99
    ##  6 Lloyds Bank op    London 1984.??.??     9     Adams, Michael Saeed, Saeed Ahmed     1-0              2430   B56
    ##  7         BCF-ch Edinburgh 1985.??.??     1     Adams, Michael   Singh, Sukh Dave 1/2-1/2     2360     2080   B70
    ##  8         BCF-ch Edinburgh 1985.??.??     2 Abayasekera, Roger     Adams, Michael     1-0     2200     2360   B13
    ##  9         BCF-ch Edinburgh 1985.??.??     3     Adams, Michael    Jackson, Sheila 1/2-1/2     2360     2225   C85
    ## 10         BCF-ch Edinburgh 1985.??.??     4     Muir, Andrew J     Adams, Michael 1/2-1/2     2285     2360   E45
    ## # ... with 2,958 more rows, and 1 more variables: Moves <list>
…
